[
	{
		"timestamp": 1647415571034,
		"ticks": 17,
		"duration": 5600,
		"diff": 5600,
		"ticksPerSecond": 3.035714285714286
	},
	{
		"timestamp": 1647415596489,
		"ticks": 56,
		"duration": 18492,
		"diff": 12892,
		"ticksPerSecond": 3.0283365779796667
	}
]