[
	{
		"timestamp": 1653398631802,
		"ticks": 250,
		"duration": 13959,
		"diff": 13959,
		"ticksPerSecond": 17.909592377677484
	},
	{
		"timestamp": 1653398653095,
		"ticks": 250,
		"duration": 21277,
		"diff": 7318,
		"ticksPerSecond": 11.749776754241669
	},
	{
		"timestamp": 1653398679890,
		"ticks": 250,
		"duration": 26793,
		"diff": 5516,
		"ticksPerSecond": 9.33079535699623
	},
	{
		"timestamp": 1653398682942,
		"ticks": 250,
		"duration": 3050,
		"diff": 23743,
		"ticksPerSecond": 81.9672131147541
	},
	{
		"timestamp": 1653398686892,
		"ticks": 250,
		"duration": 3948,
		"diff": 898,
		"ticksPerSecond": 63.32320162107396
	},
	{
		"timestamp": 1653398689369,
		"ticks": 252,
		"duration": 2460,
		"diff": 1488,
		"ticksPerSecond": 102.4390243902439
	}
]