[
	{
		"timestamp": 1653399630373,
		"ticks": 250,
		"duration": 19940,
		"diff": 19940,
		"ticksPerSecond": 12.537612838515546
	},
	{
		"timestamp": 1653399656403,
		"ticks": 250,
		"duration": 25974,
		"diff": 6034,
		"ticksPerSecond": 9.625009625009625
	}
]