[
	{
		"timestamp": 1653398642780,
		"ticks": 250,
		"duration": 7071,
		"diff": 7071,
		"ticksPerSecond": 35.35567812190638
	},
	{
		"timestamp": 1653398664401,
		"ticks": 250,
		"duration": 21612,
		"diff": 14541,
		"ticksPerSecond": 11.567647603183417
	},
	{
		"timestamp": 1653398735366,
		"ticks": 250,
		"duration": 70953,
		"diff": 49341,
		"ticksPerSecond": 3.5234591912956463
	},
	{
		"timestamp": 1653398756093,
		"ticks": 250,
		"duration": 20720,
		"diff": 50233,
		"ticksPerSecond": 12.065637065637066
	},
	{
		"timestamp": 1653398765618,
		"ticks": 250,
		"duration": 9517,
		"diff": 11203,
		"ticksPerSecond": 26.26878217925817
	}
]