[
	{
		"timestamp": 1653398633800,
		"ticks": 250,
		"duration": 18831,
		"diff": 18831,
		"ticksPerSecond": 13.275981095002921
	},
	{
		"timestamp": 1653398649096,
		"ticks": 250,
		"duration": 15263,
		"diff": 3568,
		"ticksPerSecond": 16.37947978772194
	},
	{
		"timestamp": 1653398672536,
		"ticks": 250,
		"duration": 23438,
		"diff": 8175,
		"ticksPerSecond": 10.666439115965527
	},
	{
		"timestamp": 1653398713929,
		"ticks": 250,
		"duration": 41391,
		"diff": 17953,
		"ticksPerSecond": 6.039960377859922
	},
	{
		"timestamp": 1653398718920,
		"ticks": 250,
		"duration": 4937,
		"diff": 36454,
		"ticksPerSecond": 50.63803929511849
	}
]